{
    "name": "YocoSDK-Source",
    "version": "3.3.10",
    "summary": "Yoco Payments SDK",
    "description": "Base Yoco payments SDK. Please consider using YocoSDK-UI to provide a complete card payment flow from within your application",
    "homepage": "https://developer.yoco.com",
    "license": {
        "type": "MIT",
        "file": "LICENSE"
    },
    "authors": {
        "Andrew Snowden": "andrew@yoco.com"
    },
    "platforms": {
        "ios": "8.0"
    },
    "source_files": [
        "YocoSDK/Classes/**/*"
    ],
    "source": {
        "git": "git@gitlab.com:yoco/yoco-sdk-ios.git",
        "tag": "3.3.10"
    },
    "resource_bundles": {
      "YocoSDK": [
        "YocoSDK/Assets/**/*"
      ]
    },
    "public_header_files": "YocoSDK/Classes/SDK/**/*.h",
    "header_dir": "YocoSDK",
    "pod_target_xcconfig": {
        "GCC_PREPROCESSOR_DEFINITIONS": "YocoSDK_VERSION=3.3.10"
    },
    "static_framework": true,
    "frameworks": [
        "UserNotifications"
    ],
    "dependencies": {
      "payworks/mpos/accessories/miura": [
        "2.33"
      ],
      "payworks/offline": [
        "2.33"
      ],
      "Reachability": []
    }
}
