{
  "description": "Base Yoco payments SDK. Please consider using YocoSDK-UI to provide a complete card payment flow from within your application", 
  "license": {
    "type": "MIT", 
    "file": "LICENSE"
  }, 
  "platforms": {
    "ios": "8.0"
  }, 
  "name": "YocoSDK", 
  "resource_bundles": {
    "YocoSDK": [
      "YocoSDK.framework/YocoSDK.bundle/**"
    ]
  }, 
  "static_framework": true, 
  "vendored_frameworks": [
    "YocoSDK.framework"
  ], 
  "frameworks": [
    "UserNotifications"
  ], 
  "dependencies": {
    "payworks/offline": [
      "2.34"
    ], 
    "Reachability": [], 
    "payworks/mpos/accessories/miura": [
      "2.34"
    ]
  }, 
  "source": {
    "sha256": "d4987b876f7b39d152dd60960e6367848f7763a9db978c10d146721ec4d494d8", 
    "http": "https://s3-eu-west-1.amazonaws.com/yoco-sdk/YocoSDK-Binary-3.3.8.zip"
  }, 
  "version": "3.3.8", 
  "authors": {
    "Andrew Snowden": "andrew@yoco.com"
  }, 
  "summary": "Yoco Payments SDK", 
  "homepage": "https://developer.yoco.com", 
  "exclude_files": "YocoSDK.framework/YocoSDK.bundle/Info.plist"
}