{
  "description": "Accept card payments using Yoco. The YocoSDK-UI provides an end to end payment interface that will allow your merchant to accept a card payment from within your application.", 
  "license": {
    "type": "MIT", 
    "file": "LICENSE"
  }, 
  "source": {
    "sha256": "c8d05984c04b483a1392cc29fe94adb96bced019024c09047d7d565c7e0976b4", 
    "http": "https://s3-eu-west-1.amazonaws.com/yoco-sdk/YocoSDK-UI-Binary-2.2.1.zip"
  }, 
  "resource_bundles": {
    "YocoSDK-UI": [
      "YocoSDK_UI.framework/YocoSDK-UI.bundle/**"
    ]
  }, 
  "summary": "Easily accept card payments using Yoco", 
  "vendored_frameworks": [
    "YocoSDK_UI.framework"
  ], 
  "platforms": {
    "ios": "8.0"
  }, 
  "dependencies": {
    "SpinKit": [
      "~> 1.1"
    ], 
    "ZDCChat": [], 
    "YocoSDK": [
      "3.4.1"
    ]
  }, 
  "version": "2.2.1", 
  "authors": {
    "Andrew Snowden": "andrew.snowden@gmail.com"
  }, 
  "exclude_files": "YocoSDK_UI.framework/YocoSDK-UI.bundle/Info.plist", 
  "static_framework": true, 
  "homepage": "https://developer.yoco.com", 
  "name": "YocoSDK-UI"
}